MD5
…
This shows the distance from each point to the model on the other graph. Most residuals are around 0 with some outliers above 1 and below -1, but it is not often so it is a good fit.

Question 4

lang <- twitch_data |> 
  select(channel, language, average_viewers)

lang

# A tibble: 1,000 × 3
   channel    language   average_viewers
   <chr>      <chr>                <dbl>
 1 xQcOW      English              27716
 2 summit1g   English              25610
 3 Gaules     Portuguese           10976
 4 ESL_CSGO   English               7714
 5 Tfue       English              29602
 6 Asmongold  English              42414
 7 NICKMERCS  English              24181
 8 Fextralife English              18985
 9 loltyler1  English              22381
10 Anomaly    English              12377
# ℹ 990 more rows

lang |>  
  sample_n(size = 25) 

# A tibble: 25 × 3
   channel       language   average_viewers
   <chr>         <chr>                <dbl>
 1 Staiy         German                3711
 2 Alinity       English               2441
 3 mandiocaa1    Portuguese            4355
 4 NymN          English               3402
 5 Deadlyslob    English               3088
 6 Northernlion  English               3968
 7 ESL_CSGO      English               7714
 8 NeVeR_LosEs   Chinese               3680
 9 PaymoneyWubby English               5485
10 Rubius        Spanish              42948
# ℹ 15 more rows
…
Here, we can see that English streamers do generally dominate the average viewers. Some languages have occasional outliers like Russian and English. It makes me believe that it probably has to do with the culture and whether streaming is popular wherever the stream takes place.

Question 5

twitch_data <- twitch_data %>% 
  mutate(language = as.factor(language), 
         language = relevel(language, ref = "English"))

fit2 <- lm(average_viewers ~ language,
           data = lang)

broom::tidy(fit2)

# A tibble: 21 × 5
   term              estimate std.error statistic p.value
   <chr>                <dbl>     <dbl>     <dbl>   <dbl>
 1 (Intercept)          5682.     3788.     1.50    0.134
 2 languageChinese     -2257.     4092.    -0.552   0.581
 3 languageCzech       -3855.     5129.    -0.751   0.453
 4 languageEnglish      -569.     3808.    -0.150   0.881
 5 languageFinnish     -4655.     9279.    -0.502   0.616
 6 languageFrench      -2176.     3929.    -0.554   0.580
 7 languageGerman      -1404.     3977.    -0.353   0.724
 8 languageGreek       -3721.     9279.    -0.401   0.688
 9 languageHungarian   -3542.     7087.    -0.500   0.617
10 languageItalian     -3477.     4310.    -0.807   0.420
# ℹ 11 more rows
…
